{
  "project_info": {
    "project_number": "561889564260",
    "firebase_url": "https://sbgmobilelab4.firebaseio.com",
    "project_id": "sbgmobilelab4",
    "storage_bucket": "sbgmobilelab4.appspot.com"
  },
  "client": [
    {
      "client_info": {
        "mobilesdk_app_id": "1:561889564260:android:353dd75b89b4ad5c",
        "android_client_info": {
          "package_name": "com.example.sindre.lab4"
        }
      },
      "oauth_client": [
        {
          "client_id": "561889564260-t0bnqvvlcbs1smuo9a8tqshpispp3lf3.apps.googleusercontent.com",
          "client_type": 1,
          "android_info": {
            "package_name": "com.example.sindre.lab4",
            "certificate_hash": "8e5de34f71e4c05c8673fc21e86f6267c7041bea"
          }
        },
        {
          "client_id": "561889564260-id0nfug4rvop7rcgceg9592dvtkdp4n4.apps.googleusercontent.com",
          "client_type": 3
        }
      ],
      "api_key": [
        {
          "current_key": "AIzaSyB-vLsf6RYrQQ6yDzUHGcrIeS_Ujl4sbwc"
        }
      ],
      "services": {
        "analytics_service": {
          "status": 1
        },
        "appinvite_service": {
          "status": 2,
          "other_platform_oauth_client": [
            {
              "client_id": "561889564260-id0nfug4rvop7rcgceg9592dvtkdp4n4.apps.googleusercontent.com",
              "client_type": 3
            }
          ]
        },
        "ads_service": {
          "status": 2
        }
      }
    }
  ],
  "configuration_version": "1"
}